{
  "project_info": {
    "project_number": "193764593172",
    "firebase_url": "https://stalkeyes-smart-city-4d14d.firebaseio.com",
    "project_id": "stalkeyes-smart-city-4d14d",
    "storage_bucket": "stalkeyes-smart-city-4d14d.appspot.com"
  },
  "client": [
    {
      "client_info": {
        "mobilesdk_app_id": "1:193764593172:android:f66817ebc0f64dde4ae101",
        "android_client_info": {
          "package_name": "com.stalkeyessmartcity"
        }
      },
      "oauth_client": [
        {
          "client_id": "193764593172-n90fdhmkfjfmrii0v5r84jfi86v4or6l.apps.googleusercontent.com",
          "client_type": 1,
          "android_info": {
            "package_name": "com.stalkeyessmartcity",
            "certificate_hash": "58e6d9d66059dc32dc64b96e99c2f7888a707571"
          }
        },
        {
          "client_id": "193764593172-5m4iqkadfa8sv93tna2pom21h63lgmao.apps.googleusercontent.com",
          "client_type": 3
        }
      ],
      "api_key": [
        {
          "current_key": "AIzaSyBrTc00RnlbbtlzuPKagjm9CWB0FsiGH0c"
        }
      ],
      "services": {
        "appinvite_service": {
          "other_platform_oauth_client": [
            {
              "client_id": "193764593172-5m4iqkadfa8sv93tna2pom21h63lgmao.apps.googleusercontent.com",
              "client_type": 3
            },
            {
              "client_id": "193764593172-d2bjqmkkl4nlm3656oo470u51blu72ke.apps.googleusercontent.com",
              "client_type": 2,
              "ios_info": {
                "bundle_id": "com.stalkeyessmartcity"
              }
            }
          ]
        }
      }
    }
  ],
  "configuration_version": "1"
}